- Homework 1
…
    intersect, setdiff, setequal, union

Code

library(readxl)

Reading in Data:

Code

df <- read_excel('_data/LungCapData.xls')
df

# A tibble: 725 × 6
   LungCap   Age Height Smoke Gender Caesarean
     <dbl> <dbl>  <dbl> <chr> <chr>  <chr>    
 1    6.48     6   62.1 no    male   no       
 2   10.1     18   74.7 yes   female no       
 3    9.55    16   69.7 no    female yes      
 4   11.1     14   71   no    male   no       
 5    4.8      5   56.9 no    male   no       
 6    6.22    11   58.7 no    female no       
 7    4.95     8   63.3 no    male   yes      
 8    7.32    11   70.4 no    male   no       
 9    8.88    15   70.5 no    male   no       
10    6.8     11   59.2 no    male   no       
# … with 715 more rows
# ℹ Use `print(n = ...)` to see more rows
…
Surprisingly, the mean lung capacity is higher for smokers than it is for non-smokers.

1 (d)

Code

# convert Age to categorical variable.
df <- mutate(df, AgeGroup = case_when(Age <= 13 ~ "13 and lower", Age == 14 | Age == 15 ~ "14-15", Age == 16 | Age == 17 ~ "16-17", Age >= 18 ~ "18 and above"))
arrange(df, Age)

# A tibble: 725 × 7
   LungCap   Age Height Smoke Gender Caesarean AgeGroup    
     <dbl> <dbl>  <dbl> <chr> <chr>  <chr>     <chr>       
 1   5.88      3   55.9 no    male   no        13 and lower
 2   0.507     3   51.6 no    female yes       13 and lower
 3   1.18      3   51.9 no    male   no        13 and lower
 4   4.7       3   52.7 no    male   no        13 and lower
 5   5.48      3   52.9 no    male   no        13 and lower
 6   1.02      3   47   no    female no        13 and lower
 7   2         3   51   no    female no        13 and lower
 8   1.68      3   51.9 no    male   no        13 and lower
 9   4.08      3   53.6 no    male   yes       13 and lower
10   1.45      3   45.3 no    female no        13 and lower
# … with 715 more rows
# ℹ Use `print(n = ...)` to see more rows
…
