- Final Part 2
…
LTC_AVG_OBS_REHOSP_RATE
410

Plenty of variables with missing data. Some are minor, such as population density, housing cost, and commute time variables with 8. Some are concerning, such as Heat Index, Average Yearly Temperature, and Average Yearly Precipitation, all around 120+.

The most concerning is – of course – our outcome variable, Re-Hospitalization Rates. This is not ideal. However, 410 / 3229 (12.6%) is not bad. That still leaves us with plenty of counties to review.

Code

df_new <- df_new %>%
  drop_na() %>%
  print(nrow(df_new))

# A tibble: 2,814 × 14
   COUNTYFIPS STATE   COUNTY          AHRF_USDA_RUCC_2013 CEN_POPDENSITY_COUNTY
   <chr>      <chr>   <chr>           <chr>                               <dbl>
 1 01001      Alabama Autauga County  2                                    93.6
 2 01003      Alabama Baldwin County  3                                   137. 
 3 01005      Alabama Barbour County  6                                    28.3
 4 01007      Alabama Bibb County     1                                    35.9
 5 01009      Alabama Blount County   1                                    89.6
 6 01011      Alabama Bullock County  6                                    16.3
 7 01013      Alabama Butler County   6                                    25.4
 8 01015      Alabama Calhoun County  3                                   189. 
 9 01017      Alabama Chambers County 6                                    56.0
10 01019      Alabama Cherokee County 6                                    47.0
   NEPHTN_HEATIND_105 NOAAC_AVG_TEMP_YEARLY NOAAC_PRECIPITATION_AVG_YEARLY
                <dbl>                 <dbl>                          <dbl>
 1                  4                  66.2                           5.72
 2                  0                  68.9                           5.27
 3                  3                  66.4                           5.75
 4                  0                  64.1                           5.61
 5                  0                  62.7                           5.96
 6                  2                  66.2                           5.40
 7                  0                  67.1                           5.37
 8                  0                  63.2                           5.74
 9                  0                  63.3                           5.93
10                  0                  62.3                           5.85
   NOAAS_TOT_NATURAL_DISASTERS SAIPE_MEDIAN_HH_INCOME SAIPE_PCT_POV
                         <dbl>                  <dbl>         <dbl>
 1                          17                  67565          11.2
 2                          58                  71135           8.9
 3                          24                  38866          25.5
 4                          23                  50907          17.8
 5                          45                  55203          13.1
 6                          12                  33124          30.8
 7                          18                  42268          20.6
 8                          14                  50259          14.5
 9                          18                  39318          16.3
10                          38                  50388          14.7
   ACS_PCT_COMMT_60MINUP ACS_PCT_RENTER_HU_COST_50PCT LTC_AVG_OBS_REHOSP_RATE
                   <dbl>                        <dbl>                   <dbl>
 1                  6.06                         26.6                    0.14
 2                  7.53                         20.8                    0.14
 3                 11.8                          22.4                    0.22
 4                 10.4                          27.4                    0.16
 5                 18.6                          22.6                    0.14
 6                 12.7                          34                      0.05
 7                  9.14                         29.5                    0.11
 8                  7.21                         20.5                    0.13
 9                  5.93                         13.0                    0.15
10                 10.2                          12.2                    0.19
# … with 2,804 more rows
…
