- Final Part 1
…
This is not ideal, as that’s our dependent variable. However, 44 / 254 is not bad. That still leaves us with plenty of counties to review.

Code

df_new %>%
  drop_na() %>%
  print(nrow(df_new))

# A tibble: 210 × 22
   COUNTYFIPS STATE COUNTY           ACS_TOT_POP_WT ACS_PCT_MALE ACS_PCT_FEMALE
   <chr>      <chr> <chr>                     <dbl>        <dbl>          <dbl>
 1 48001      Texas Anderson County           57917         61.2           38.8
 2 48003      Texas Andrews County            18227         49.6           50.4
 3 48005      Texas Angelina County           87119         48.9           51.1
 4 48007      Texas Aransas County            24220         49.5           50.5
 5 48011      Texas Armstrong County           1950         45.7           54.3
 6 48013      Texas Atascosa County           50194         50.2           49.8
 7 48015      Texas Austin County             29892         49.9           50.1
 8 48017      Texas Bailey County              6916         50.0           50.0
 9 48019      Texas Bandera County            22770         49.8           50.2
10 48021      Texas Bastrop County            86839         50.8           49.2
   ACS_PCT_AIAN ACS_PCT_ASIAN ACS_PCT_BLACK ACS_PCT_HISPANIC ACS_PCT_MULT_RACE
          <dbl>         <dbl>         <dbl>            <dbl>             <dbl>
 1         0.41          0.6          20.9             17.9               4.46
 2         0             0.31          2.29            56.9               5.76
 3         0.31          1.11         15.1             22.3               3.21
 4         0.9           1.14          0.33            28.0               6.2 
 5         0.77          0             0.72             8.46              5.33
 6         0.08          0.5           1.08            64.7              11.4 
 7         0.14          0.55          8.77            27.2               2.96
 8         1             0.68          0.29            65.8               0.49
 9         1.2           0.34          0.75            19.3               5.97
10         0.53          0.84          7.83            38.8               6.98
   ACS_PCT_NHPI ACS_PCT_OTHER_RACE ACS_PCT_WHITE CEN_POPDENSITY_COUNTY
          <dbl>              <dbl>         <dbl>                 <dbl>
 1         0.02               2.35          71.2                 54.5 
 2         0.14              10.2           81.2                 12.2 
 3         0.01               2.78          77.4                109.  
 4         0                  3.57          87.9                 96.1 
 5         0                  1.59          91.6                  2.14
 6         0                  2.2           84.8                 41.2 
 7         0                 12.1           75.5                 46.2 
 8         0                  4.38          93.2                  8.36
 9         0                  2.7           89.0                 28.8 
10         0                 18.4           65.4                 97.8 
   NEPHTN_HEATIND_105 NOAAC_AVG_TEMP_Y…¹ NOAAC…² NOAAS…³ SAIPE…⁴ SAIPE…⁵ LTC_A…⁶
                <dbl>              <dbl>   <dbl>   <dbl>   <dbl>   <dbl>   <dbl>
 1                 28               66.5   4.36       46   50879    20.9    0.21
 2                  0               64.6   0.595      26   76600     9.2    0.2 
 3                 26               67.6   4.05       15   49943    17      0.18
 4                  7               73.2   2.24       36   51461    17.1    0.09
 5                  0               60.6   1.09       90   62256     9.3    0.33
 6                 47               71.8   2.09       38   60594    14.9    0.16
 7                 33               70.4   3.41       19   60593    11.4    0.08
 8                  0               59.6   0.692      38   48259    14.4    0   
 9                  7               68.2   2.03       29   64389    11      0.08
10                 44               70.0   2.89       30   74612    10.8    0.14
# … with 200 more rows, and abbreviated variable names ¹​NOAAC_AVG_TEMP_YEARLY, ²​NOAAC_PRECIPITATION_AVG_YEARLY, ³​NOAAS_TOT_NATURAL_DISASTERS, ⁴​SAIPE_MEDIAN_HH_INCOME, ⁵​SAIPE_PCT_POV, ⁶​LTC_AVG_OBS_REHOSP_RATE
…
