Homework 1
…
── Attaching packages ─────────────────────────────────────── tidyverse 1.3.2 ──
✔ ggplot2 3.3.6     ✔ purrr   0.3.4
✔ tibble  3.1.8     ✔ dplyr   1.0.9
✔ tidyr   1.2.0     ✔ stringr 1.4.0
✔ readr   2.1.2     ✔ forcats 0.5.1
── Conflicts ────────────────────────────────────────── tidyverse_conflicts() ──
✖ dplyr::filter() masks stats::filter()
✖ dplyr::lag()    masks stats::lag()

Code

df <- read_excel("_data/LungCapData.xls")
df

# A tibble: 725 × 6
   LungCap   Age Height Smoke Gender Caesarean
     <dbl> <dbl>  <dbl> <chr> <chr>  <chr>    
 1    6.48     6   62.1 no    male   no       
 2   10.1     18   74.7 yes   female no       
 3    9.55    16   69.7 no    female yes      
 4   11.1     14   71   no    male   no       
 5    4.8      5   56.9 no    male   no       
 6    6.22    11   58.7 no    female no       
 7    4.95     8   63.3 no    male   yes      
 8    7.32    11   70.4 no    male   no       
 9    8.88    15   70.5 no    male   no       
10    6.8     11   59.2 no    male   no       
# … with 715 more rows
# ℹ Use `print(n = ...)` to see more rows
…
