Final Project - Part 2
…
#remove NA values
wav49_factored <- na.omit(wav49_factored)
wav49_factored

# A tibble: 1,993 × 9
   awareness         control under…¹ resig…² govtreg age   educa…³ party ideol…⁴
   <fct>             <fct>   <fct>   <fct>   <fct>   <fct> <fct>   <fct> <fct>  
 1 Not too closely   Some c… Very l… Yes, i… More r… 30-49 Some C… Dem/… Modera…
 2 Not too closely   Very l… Very l… Yes, i… More r… 50-64 Some C… Rep/… Very c…
 3 Not at all close… No con… Nothing No, it… More r… 30-49 H.S. g… Rep/… Conser…
 4 Somewhat closely  Very l… Very l… No, it… About … 30-49 Colleg… Rep/… Modera…
 5 Very closely      No con… Nothing No, it… About … 50-64 Some C… Rep/… Conser…
 6 Not too closely   Very l… Some    No, it… More r… 18-29 Some C… Rep/… Conser…
 7 Not too closely   Some c… A grea… Yes, i… Less r… 30-49 H.S. g… Dem/… Liberal
 8 Very closely      No con… Very l… No, it… More r… 65+   H.S. g… Rep/… Modera…
 9 Not too closely   Very l… Very l… Yes, i… More r… 50-64 H.S. g… Dem/… Modera…
10 Not too closely   Very l… Very l… No, it… More r… 50-64 H.S. g… Rep/… Conser…
# … with 1,983 more rows, and abbreviated variable names ¹​understanding,
#   ²​resignation, ³​education, ⁴​ideology
…
