HW4
…
Code

tibble(salary)

# A tibble: 52 × 6
   degree  rank  sex     year ysdeg salary
   <fct>   <fct> <fct>  <int> <int>  <int>
 1 Masters Prof  Male      25    35  36350
 2 Masters Prof  Male      13    22  35350
 3 Masters Prof  Male      10    23  28200
 4 Masters Prof  Female     7    27  26775
 5 PhD     Prof  Male      19    30  33696
 6 Masters Prof  Male      16    21  28516
 7 PhD     Prof  Female     0    32  24900
 8 Masters Prof  Male      16    18  31909
 9 PhD     Prof  Male      13    30  31850
10 PhD     Prof  Male      13    31  32850
# … with 42 more rows
…
Comparing the rank excluded model with a non-excluded model we can see that rank is not multicollinear as each rank variable outcome is significant according to its individual p-value and adjusted R-squared decreases when rank is removed from the model. The rank-included model has relatively greater predictive power.

F

We can turn ysdeg into a dummy variable dean with 1 if hired after the dean, 0 if hired before the dean.

Code

salary$dean <- ifelse(salary$ysdeg <=15, 1, 0)
tibble(salary)

# A tibble: 52 × 7
   degree  rank  sex     year ysdeg salary  dean
   <fct>   <fct> <fct>  <int> <int>  <int> <dbl>
 1 Masters Prof  Male      25    35  36350     0
 2 Masters Prof  Male      13    22  35350     0
 3 Masters Prof  Male      10    23  28200     0
 4 Masters Prof  Female     7    27  26775     0
 5 PhD     Prof  Male      19    30  33696     0
 6 Masters Prof  Male      16    21  28516     0
 7 PhD     Prof  Female     0    32  24900     0
 8 Masters Prof  Male      16    18  31909     0
 9 PhD     Prof  Male      13    30  31850     0
10 PhD     Prof  Male      13    31  32850     0
# … with 42 more rows
…
Code

tibble(house.selling.price)

# A tibble: 100 × 7
    case Taxes  Beds Baths   New  Price  Size
   <int> <int> <int> <int> <int>  <int> <int>
 1     1  3104     4     2     0 279900  2048
 2     2  1173     2     1     0 146500   912
 3     3  3076     4     2     0 237700  1654
 4     4  1608     3     2     0 200000  2068
 5     5  1454     3     3     0 159900  1477
 6     6  2997     3     2     1 499900  3153
 7     7  4054     3     2     0 265500  1355
 8     8  3002     3     2     1 289900  2075
 9     9  6627     5     4     0 587000  3990
10    10   320     3     2     0  70000  1160
# … with 90 more rows
…
