- HW5
…
Code

tibble(house.selling.price.2)

# A tibble: 93 × 5
       P     S    Be    Ba   New
   <dbl> <dbl> <int> <int> <int>
 1  48.5  1.1      3     1     0
 2  55    1.01     3     2     0
 3  68    1.45     3     2     0
 4 137    2.4      3     3     0
 5 309.   3.3      4     3     1
 6  17.5  0.4      1     1     0
 7  19.6  1.28     3     1     0
 8  24.5  0.74     3     1     0
 9  34.8  0.78     2     1     0
10  32    0.97     3     1     0
# … with 83 more rows
…
summary(trees)

     Girth           Height       Volume     
 Min.   : 8.30   Min.   :63   Min.   :10.20  
 1st Qu.:11.05   1st Qu.:72   1st Qu.:19.40  
 Median :12.90   Median :76   Median :24.20  
 Mean   :13.25   Mean   :76   Mean   :30.17  
 3rd Qu.:15.25   3rd Qu.:80   3rd Qu.:37.30  
 Max.   :20.60   Max.   :87   Max.   :77.00  

Code

tibble(trees)

# A tibble: 31 × 3
   Girth Height Volume
   <dbl>  <dbl>  <dbl>
 1   8.3     70   10.3
 2   8.6     65   10.3
 3   8.8     63   10.2
 4  10.5     72   16.4
 5  10.7     81   18.8
 6  10.8     83   19.7
 7  11       66   15.6
 8  11       75   18.2
 9  11.1     80   22.6
10  11.2     75   19.9
# … with 21 more rows
…
summary(florida)

      Gore             Bush           Buchanan     
 Min.   :   788   Min.   :  1316   Min.   :   9.0  
 1st Qu.:  3055   1st Qu.:  4746   1st Qu.:  46.5  
 Median : 14152   Median : 20196   Median : 114.0  
 Mean   : 43341   Mean   : 43356   Mean   : 258.5  
 3rd Qu.: 45974   3rd Qu.: 56542   3rd Qu.: 285.5  
 Max.   :386518   Max.   :289456   Max.   :3407.0  

Code

tibble(florida)

# A tibble: 67 × 3
     Gore   Bush Buchanan
    <int>  <int>    <int>
 1  47300  34062      262
 2   2392   5610       73
 3  18850  38637      248
 4   3072   5413       65
 5  97318 115185      570
 6 386518 177279      789
 7   2155   2873       90
 8  29641  35419      182
 9  25501  29744      270
10  14630  41745      186
# … with 57 more rows
…
