Final Project Proposal
…
There are columns which contain continuous variables rather than categorical data (duration of credit, credit amount and age). This is potentially important information in deciding credit risk and therefore one solution is to transform the data into categorical variables using the cut function.

Code

#handle spaces in column name
Credit_new1 <- credit                # Duplicate data

colnames(Credit_new1) <- gsub(" ", ".", colnames(Credit_new1))
 # Rename variable names
colnames(Credit_new1)[colnames(Credit_new1)
                   %in% c("Duration.of.Credit.(month)","Value.Savings/Stocks","Sex.&.Marital.Status","Age.(years)")] <- c("Duration.of.Credit.month","Value.Savings.Stocks","Sex.Marital.Status", "Age.years")
Credit_new1  

# A tibble: 1,000 × 21
   Creditability Accou…¹ Durat…² Payme…³ Purpose Credi…⁴ Value…⁵ Lengt…⁶ Insta…⁷
           <dbl>   <dbl>   <dbl>   <dbl>   <dbl>   <dbl>   <dbl>   <dbl>   <dbl>
 1             1       1      18       4       2    1049       1       2       4
 2             1       1       9       4       0    2799       1       3       2
 3             1       2      12       2       9     841       2       4       2
 4             1       1      12       4       0    2122       1       3       3
 5             1       1      12       4       0    2171       1       3       4
 6             1       1      10       4       0    2241       1       2       1
 7             1       1       8       4       0    3398       1       4       1
 8             1       1       6       4       0    1361       1       2       2
 9             1       4      18       4       3    1098       1       1       4
10             1       2      24       2       3    3758       3       1       1
# … with 990 more rows, 12 more variables: Sex.Marital.Status <dbl>,
#   Guarantors <dbl>, Duration.in.Current.address <dbl>,
#   Most.valuable.available.asset <dbl>, Age.years <dbl>,
#   Concurrent.Credits <dbl>, Type.of.apartment <dbl>,
#   No.of.Credits.at.this.Bank <dbl>, Occupation <dbl>, No.of.dependents <dbl>,
#   Telephone <dbl>, Foreign.Worker <dbl>, and abbreviated variable names
#   ¹​Account.Balance, ²​Duration.of.Credit.month, …
…
Finally, the remaining columns can be converted to factors.

Code

for(i in 1:21){
Credit_new1[,i] <- as.factor(as.numeric(unlist(Credit_new1[,i])))}
print(Credit_new1)

# A tibble: 1,000 × 21
   Creditability Accou…¹ Durat…² Payme…³ Purpose Credi…⁴ Value…⁵ Lengt…⁶ Insta…⁷
   <fct>         <fct>   <fct>   <fct>   <fct>   <fct>   <fct>   <fct>   <fct>  
 1 1             1       2       4       2       2       1       2       4      
 2 1             1       1       4       0       2       1       3       2      
 3 1             2       1       2       9       1       2       4       2      
 4 1             1       1       4       0       2       1       3       3      
 5 1             1       1       4       0       2       1       3       4      
 6 1             1       1       4       0       2       1       2       1      
 7 1             1       1       4       0       2       1       4       1      
 8 1             1       1       4       0       2       1       2       2      
 9 1             4       2       4       3       2       1       1       4      
10 1             2       3       2       3       2       3       1       1      
# … with 990 more rows, 12 more variables: Sex.Marital.Status <fct>,
#   Guarantors <fct>, Duration.in.Current.address <fct>,
#   Most.valuable.available.asset <fct>, Age.years <fct>,
#   Concurrent.Credits <fct>, Type.of.apartment <fct>,
#   No.of.Credits.at.this.Bank <fct>, Occupation <fct>, No.of.dependents <fct>,
#   Telephone <fct>, Foreign.Worker <fct>, and abbreviated variable names
#   ¹​Account.Balance, ²​Duration.of.Credit.month, …
…
