- HW1
…
knitr::opts_chunk$set(echo = TRUE)

Question 1

Read the data from xls file

Code

RE <- read_excel("_data/LungCapData.xls")
RE

# A tibble: 725 × 6
   LungCap   Age Height Smoke Gender Caesarean
     <dbl> <dbl>  <dbl> <chr> <chr>  <chr>    
 1    6.48     6   62.1 no    male   no       
 2   10.1     18   74.7 yes   female no       
 3    9.55    16   69.7 no    female yes      
 4   11.1     14   71   no    male   no       
 5    4.8      5   56.9 no    male   no       
 6    6.22    11   58.7 no    female no       
 7    4.95     8   63.3 no    male   yes      
 8    7.32    11   70.4 no    male   no       
 9    8.88    15   70.5 no    male   no       
10    6.8     11   59.2 no    male   no       
# … with 715 more rows
…
From this sample, it appears that smokers have a higher mean lung capacity than non-smokers.

D

Code

RE<-RE %>% 
  mutate(Category = as.factor(case_when(Age <= 13 ~ "13 and under", 
                           Age == 14 |Age ==15 ~ "14-15", 
                           Age == 16 | Age==17 ~ "16-17",
                           Age >= 18 ~ "18 or over"
                           )))
RE

# A tibble: 725 × 7
   LungCap   Age Height Smoke Gender Caesarean Category    
     <dbl> <dbl>  <dbl> <chr> <chr>  <chr>     <fct>       
 1    6.48     6   62.1 no    male   no        13 and under
 2   10.1     18   74.7 yes   female no        18 or over  
 3    9.55    16   69.7 no    female yes       16-17       
 4   11.1     14   71   no    male   no        14-15       
 5    4.8      5   56.9 no    male   no        13 and under
 6    6.22    11   58.7 no    female no        13 and under
 7    4.95     8   63.3 no    male   yes       13 and under
 8    7.32    11   70.4 no    male   no        13 and under
 9    8.88    15   70.5 no    male   no        14-15       
10    6.8     11   59.2 no    male   no        13 and under
# … with 715 more rows
…
