ShoshanaBuck-HW1
…
library(readxl)
library(ggplot2)

Question 1

Use the LungCapData to answer the following questions.

Code

# read in data
lung_cap<- read_xls("_data/LungCapData.xls")
lung_cap

# A tibble: 725 × 6
   LungCap   Age Height Smoke Gender Caesarean
     <dbl> <dbl>  <dbl> <chr> <chr>  <chr>    
 1    6.48     6   62.1 no    male   no       
 2   10.1     18   74.7 yes   female no       
 3    9.55    16   69.7 no    female yes      
 4   11.1     14   71   no    male   no       
 5    4.8      5   56.9 no    male   no       
 6    6.22    11   58.7 no    female no       
 7    4.95     8   63.3 no    male   yes      
 8    7.32    11   70.4 no    male   no       
 9    8.88    15   70.5 no    male   no       
10    6.8     11   59.2 no    male   no       
# … with 715 more rows
…
Code

# Mean of smokers 18 & older
df %>% 
  filter(Smoke == 'yes' & age_group == '18 & older') %>% 
  pull(LungCap) %>% 
  mean()

[1] 10.51333

Code

lung_cap

# A tibble: 725 × 6
   LungCap   Age Height Smoke Gender Caesarean
     <dbl> <dbl>  <dbl> <chr> <chr>  <chr>    
 1    6.48     6   62.1 no    male   no       
 2   10.1     18   74.7 yes   female no       
 3    9.55    16   69.7 no    female yes      
 4   11.1     14   71   no    male   no       
 5    4.8      5   56.9 no    male   no       
 6    6.22    11   58.7 no    female no       
 7    4.95     8   63.3 no    male   yes      
 8    7.32    11   70.4 no    male   no       
 9    8.88    15   70.5 no    male   no       
10    6.8     11   59.2 no    male   no       
# … with 715 more rows
…
